@startuml cancel-recycle

actor Client
database "App-Service-API" as API
collections "Txn Collection" as txn
collections "App-Device Collection" as dv
collections "App-LogPool Collection" as log
queue "Core-Device gRPC" as coreDv
collections "Core-Device Collection" as dvCore
collections "Core-LogPool Collection" as logCore

Client->API: send request
API->API: validate()
note bottom
    check id 
    comment should not empty
end note
API-->Client: 400 bad request
API->txn: get txn (get deviceList)
note bottom
    recycle txn only
end note
API-->Client: 403 / 404 / 500
group WithSession()
    API->txn: change txn state to cancel\n(add comment)
    note right
        recycle txn only
    end note
    API->dv: get deviceList detail
    note bottom
        make sure all state 
        is **__2bRepair__**
    end note
    API->dv: change macList's state
    API->log: add logs
    API->coreDv: send request
    coreDv->dvCore: change macList state
    coreDv->logCore: add log
    API->API: OK (commit)
end
API-->Client: 403 / 404 / 500 (abort)
API->Client: 200 OK 

@enduml