@startuml confirm-recycling

actor Admin as Client
database "App-Service-API" as API
collections "App-Txn Collection" as txn
collections "App-Device Collection" as appDvC
queue "Core-gRPC" as core
collections "Core-Device Collection" as dv
collections "Core-LogPool Collection" as log

Client->API: Send request
API->API: Validate()
note bottom
    check path id
end note
API-->Client: 400 bad request

API->txn: get txn (get macList)
note right
    **__recycle__** txn only
end note
API-->Client: 403 / 404 / 500

group WithSession()
    API->txn: change txn state\nto confirm\n(add comment)
    API->appDvC: change device state and add log
    API->core: send request to change
    core->dv: change macList's State\nto recycled
    note right
        need to check all the 
        mac's state is **__toBeRepaired__**
    end note
    core->log: add log
    API->API: commit
end
API-->Client: 400 / 404 / 500 (abort)
API->Client: 200 OK

@enduml